 Parsing input file : FallingBlock_FC_canonical.dat 
# Adding PetscOption: -npicard 3 
# Adding PetscOption: -snes_monitor 
# Adding PetscOption: -snes_atol 1e-12 
# Adding PetscOption: -snes_rtol 1e-6 
# Adding PetscOption: -snes_stol 1e-6 
# Adding PetscOption: -snes_max_it 25 
# Adding PetscOption: -snes_max_funcs 50000 
# Adding PetscOption: -snes_type ksponly 
# Adding PetscOption: -js_ksp_type gcr 
# Adding PetscOption: -js_ksp_max_it 1000 
# Adding PetscOption: -js_ksp_min_it 2 
# Adding PetscOption: -js_ksp_converged_reason 
# Adding PetscOption: -js_ksp_monitor 
# Adding PetscOption: -js_ksp_rtol 1e-8 
# Adding PetscOption: -pstokes mg 
# Adding PetscOption: -pgamma 1e3 
# Adding PetscOption: -al_ksp_type preonly 
# Adding PetscOption: -al_pc_type lu 
# Adding PetscOption: -al_pc_factor_mat_solver_package mumps 
# Adding PetscOption: -gmg_pc_type mg 
# Adding PetscOption: -gmg_pc_mg_levels 4 
# Adding PetscOption: -gmg_pc_mg_galerkin 
# Adding PetscOption: -gmg_pc_mg_type multiplicative 
# Adding PetscOption: -gmg_pc_mg_cycle_type v 
# Adding PetscOption: -gmg_pc_view 
# Adding PetscOption: -gmg_pc_mg_log 
# Adding PetscOption: -gmg_mg_levels_ksp_type richardson 
# Adding PetscOption: -gmg_mg_levels_ksp_richardson_scale 0.5 
# Adding PetscOption: -gmg_mg_levels_ksp_max_it 20 
# Adding PetscOption: -crs_ksp_type preonly 
# Adding PetscOption: -crs_pc_type gamg - 
# Adding PetscOption: -crs_pc_gamg_sym_graph true 
# Adding PetscOption: -crs_pc_gamg_agg_nsmooths 0 
# Adding PetscOption: -crs_pc_gamg_verbose 1 
# Adding PetscOption: -crs_pc_gamg_repartition true 
# Adding PetscOption: -use_fdstag_canonical 
# Adding PetscOption: -AddRandomNoiseParticles 0 
# Adding PetscOption: -restart 0 
# Adding PetscOption: -save_breakpoints 0 
# -------------------------------------------------------------------------- 
#                   Lithosphere and Mantle Evolution Model                   
#              Current Revision: 5486 - 2014-10-15 00:00:33		     
#  Modified items: LaMEMLib_FDSTAG.c, Mesh.c, 
#     Compiled: Date: Oct 15 2014 - Time: 10:11:48 - Mode:  	    
# -------------------------------------------------------------------------- 
#        STAGGERED-GRID FINITE DIFFERENCE CANONICAL IMPLEMENTATION           
# -------------------------------------------------------------------------- 
# --------------------------------------------------------------------------
# Phase material parameters read from FallingBlock_FC_canonical.dat: 
#    phase_0 (id=0), VISCOSITY, constant [0,0,0] = 1.000000e+00 
#    phase_0 (id=0), ELASTICITY, constant [0,1,0] = 5.000000e+10, 1.000000e+00 
#    phase_0 (id=0), DENSITY, temperature-dependent [0,2,0] = 1.000000e+00, 0.000000e+00, 0.000000e+00 
#    phase_0 (id=0), ENERGY, constant [0,3,0] = 3.000000e+00 1.050000e+03 0.000000e+00 0.000000e+00 
#    phase_1 (id=1), VISCOSITY, constant [1,0,0] = 1.000000e+00 
#    phase_1 (id=1), ELASTICITY, constant [1,1,0] = 5.000000e+10, 1.000000e+00 
#    phase_1 (id=1), DENSITY, temperature-dependent [1,2,0] = 2.000000e+00, 0.000000e+00, 0.000000e+00 
#    phase_1 (id=1), ENERGY, constant [1,3,0] = 3.000000e+00 1.050000e+03 0.000000e+00 0.000000e+00 
 Element-type used         : ;  [Q1P0 Q2Pm1_global Q2Pm1_local Q1Q1 FDSTAG] (change with -vpt_element)
 Total # of cpu's          : 8192 
 Resolution [nx,ny,nz]     : 1025 x 513 x 513 
 Total # of velocity dof's : 809244675 
 Computing mean material per element using arithmetic averaging from integration points 
 Employing code in an Eulerian manner 
 Gravity angle with z-axis =  0 
 Approximate Aspect ratio of cells [dx/dz, dy/dz] = [0.5 1] 
 Number of tracers/cell in [x,y,z]-direction = [2,2,2] 
 NumSurfaceNodes=101  nz=513 
 # Not employing nonlinear iterations 
 BC employed: BC.[Left Right; Front Back; Lower Upper]=[1 1; 1 1; 1 1] 
# Initial time step: 0.001 years 
 Input is assumed to be in non-dimensional units 
# Starting marker initialization routine
# FALLING BLOCK SETUP 
# Setup Parameters: Block coordinates - [left,right]=[0.25,0.75]; [front,back]=[0.25,0.75]; [bottom,top]=[0.25,0.75] 
# Finished marker initialization routine
Coarse grid size per processor [nx=1][ny=1][nz=1] 
Number of multigrid levels: 6
  0 SNES Function norm 1.919658636321e+04 
	[0]PCSetUp_GAMG level 0 N=34048, n data rows=1, n data cols=1, nnz/row (ave)=25, np=8192
	[0]PCGAMGFilterGraph 16% nnz after filtering, with threshold 0, 25 nnz ave. (N=34048)
	[0]maxIndSetAgg removed 3 of 4 vertices.  0 selected.
		[0]PCGAMGProlongator_AGG New grid 374 nodes
	[0]createLevel repartition: size (active): 8192 --> 1, neq = 0
		[0]PCSetUp_GAMG 1) N=374, n data cols=1, nnz/row (ave)=17, 1 active pes
	[0]PCSetUp_GAMG 2 levels, grid complexity = 65.68
			PCSetUp_GAMG PC setup max eigen=3.162867e+00 min=4.057468e-01 on level 1 (N=34048)
    Residual norms for js_ solve.
    0 KSP Residual norm 1.919658636321e+04 
    1 KSP Residual norm 9.450508653447e+03 
    2 KSP Residual norm 3.243487919395e+03 
    3 KSP Residual norm 1.223360997903e+03 
    4 KSP Residual norm 8.724892803167e+02 
    5 KSP Residual norm 5.096077091700e+02 
    6 KSP Residual norm 2.663518429469e+02 
    7 KSP Residual norm 1.186558581734e+02 
    8 KSP Residual norm 3.781211756350e+01 
    9 KSP Residual norm 3.101044322643e+01 
   10 KSP Residual norm 2.548869427685e+01 
   11 KSP Residual norm 1.135771870053e+01 
   12 KSP Residual norm 3.939212319267e+00 
   13 KSP Residual norm 1.777382334194e+00 
   14 KSP Residual norm 8.094641803901e-01 
   15 KSP Residual norm 3.697733705725e-01 
   16 KSP Residual norm 6.935127474577e-02 
   17 KSP Residual norm 3.667027745694e-02 
   18 KSP Residual norm 1.685168155212e-02 
   19 KSP Residual norm 5.426147456951e-03 
   20 KSP Residual norm 3.289569569425e-03 
   21 KSP Residual norm 1.279134534920e-03 
   22 KSP Residual norm 5.584406409438e-04 
   23 KSP Residual norm 1.600393242771e-04 
  Linear solve converged due to CONVERGED_RTOL iterations 23
  1 SNES Function norm 1.600387800526e-04 
CONVERGED_ITS Number of nonlinear iterations = 1
#  Nonlinear solve took 438.048 s 
************************************************************************************************************************
***             WIDEN YOUR WINDOW TO 120 CHARACTERS.  Use 'enscript -r -fCourier9' to print this document            ***
************************************************************************************************************************

---------------------------------------------- PETSc Performance Summary: ----------------------------------------------

./LaMEM_64bit on a JUQUEEN_OPT_64bit named R03-ID-J05.zam.kfa-juelich.de with 8192 processors, by Unknown Thu Oct 16 11:49:59 2014
Using Petsc Release Version 3.5.2, Sep, 08, 2014 

                         Max       Max/Min        Avg      Total 
Time (sec):           4.761e+02      1.00000   4.761e+02
Objects:              1.375e+03      1.00073   1.374e+03
Flops:                9.388e+09      1.04110   9.246e+09  7.574e+13
Flops/sec:            1.972e+07      1.04110   1.942e+07  1.591e+11
MPI Messages:         2.348e+05      6.34745   1.280e+05  1.049e+09
MPI Message Lengths:  2.609e+08      2.04625   1.927e+03  2.021e+12
MPI Reductions:       1.382e+03      1.00218

Flop counting convention: 1 flop = 1 real number operation of type (multiply/divide/add/subtract)
                            e.g., VecAXPY() for real vectors of length N --> 2N flops
                            and VecAXPY() for complex vectors of length N --> 8N flops

Summary of Stages:   ----- Time ------  ----- Flops -----  --- Messages ---  -- Message Lengths --  -- Reductions --
                        Avg     %Total     Avg     %Total   counts   %Total     Avg         %Total   counts   %Total 
 0:      Main Stage: 5.8800e+01  12.3%  3.1654e+12   4.2%  1.902e+08  18.1%  1.370e+02        7.1%  1.378e+03  99.9% 
 1:        MG Apply: 4.1732e+02  87.7%  7.2579e+13  95.8%  8.586e+08  81.9%  1.790e+03       92.9%  0.000e+00   0.0% 

------------------------------------------------------------------------------------------------------------------------
See the 'Profiling' chapter of the users' manual for details on interpreting output.
Phase summary info:
   Count: number of times phase was executed
   Time and Flops: Max - maximum over all processors
                   Ratio - ratio of maximum to minimum over all processors
   Mess: number of messages sent
   Avg. len: average message length (bytes)
   Reduct: number of global reductions
   Global: entire computation
   Stage: stages of a computation. Set stages with PetscLogStagePush() and PetscLogStagePop().
      %T - percent time in this phase         %F - percent flops in this phase
      %M - percent messages in this phase     %L - percent message lengths in this phase
      %R - percent reductions in this phase
   Total Mflop/s: 10e-6 * (sum of flops over all processors)/(max time over all processors)
------------------------------------------------------------------------------------------------------------------------
Event                Count      Time (sec)     Flops                             --- Global ---  --- Stage ---   Total
                   Max Ratio  Max     Ratio   Max  Ratio  Mess   Avg len Reduct  %T %F %M %L %R  %T %F %M %L %R Mflop/s
------------------------------------------------------------------------------------------------------------------------

--- Event Stage 0: Main Stage

VecDotNorm2           23 1.0 4.3821e-01 8.1 1.23e+07 1.0 0.0e+00 0.0e+00 2.3e+01  0  0  0  0  2   0  3  0  0  2 225702
VecMDot               32 1.0 8.4356e+0088.4 6.79e+07 1.0 0.0e+00 0.0e+00 3.2e+01  1  1  0  0  2   4 17  0  0  2 64486
VecNorm               37 1.0 3.2876e-02 3.2 6.98e+06 1.0 0.0e+00 0.0e+00 3.7e+01  0  0  0  0  3   0  2  0  0  3 1700447
VecScale              57 1.0 2.5581e-02 1.2 6.17e+06 1.0 0.0e+00 0.0e+00 0.0e+00  0  0  0  0  0   0  2  0  0  0 1933184
VecCopy                1 1.0 3.8506e-06 2.1 0.00e+00 0.0 0.0e+00 0.0e+00 0.0e+00  0  0  0  0  0   0  0  0  0  0     0
VecSet               263 1.0 2.5852e-02 1.5 0.00e+00 0.0 0.0e+00 0.0e+00 0.0e+00  0  0  0  0  0   0  0  0  0  0     0
VecAXPY               72 1.0 1.0065e-01 1.2 1.90e+07 1.0 0.0e+00 0.0e+00 0.0e+00  0  0  0  0  0   0  5  0  0  0 1516709
VecAYPX                1 1.0 2.3695e-03 1.7 1.34e+05 1.0 0.0e+00 0.0e+00 0.0e+00  0  0  0  0  0   0  0  0  0  0 453696
VecMAXPY              55 1.0 5.1115e-01 1.2 1.36e+08 1.0 0.0e+00 0.0e+00 0.0e+00  0  1  0  0  0   1 34  0  0  0 2128452
VecAssemblyBegin       8 1.0 1.9655e-01 1.3 0.00e+00 0.0 0.0e+00 0.0e+00 2.1e+01  0  0  0  0  2   0  0  0  0  2     0
VecAssemblyEnd         8 1.0 5.3873e-05 1.3 0.00e+00 0.0 0.0e+00 0.0e+00 0.0e+00  0  0  0  0  0   0  0  0  0  0     0
VecScatterBegin      158 1.0 1.0062e-01 1.7 0.00e+00 0.0 3.5e+07 1.5e+03 0.0e+00  0  0  3  3  0   0  0 18 37  0     0
VecScatterEnd        158 1.0 1.6686e+00 9.7 0.00e+00 0.0 0.0e+00 0.0e+00 0.0e+00  0  0  0  0  0   1  0  0  0  0     0
VecSetRandom           1 1.0 5.5650e-06 1.7 0.00e+00 0.0 0.0e+00 0.0e+00 0.0e+00  0  0  0  0  0   0  0  0  0  0     0
VecNormalize          11 1.0 4.1893e-0312.9 2.31e+02 1.8 0.0e+00 0.0e+00 1.1e+01  0  0  0  0  1   0  0  0  0  1   268
Warning -- total time of even greater than time of entire stage -- something is wrong with the timer
MatMult               57 1.0 4.2138e+02 1.0 9.09e+09 1.0 8.6e+08 2.2e+03 0.0e+00 88 97 82 94  0 71223184541329  0 174136
MatSOR                11 1.0 7.7986e-05 1.4 1.08e+03 3.1 0.0e+00 0.0e+00 0.0e+00  0  0  0  0  0   0  0  0  0  0 40261
MatConvert             2 1.0 2.1443e-03 1.4 0.00e+00 0.0 0.0e+00 0.0e+00 3.0e+00  0  0  0  0  0   0  0  0  0  0     0
MatScale               1 1.0 7.3603e-04 5.6 5.72e+02 2.9 3.6e+05 1.9e+01 0.0e+00  0  0  0  0  0   0  0  0  0  0  5998
MatAssemblyBegin      71 1.0 5.8064e-01 2.5 0.00e+00 0.0 2.3e+06 3.8e+03 8.0e+01  0  0  0  0  6   1  0  1  6  6     0
MatAssemblyEnd        71 1.0 6.5995e+00 1.0 0.00e+00 0.0 1.2e+07 2.7e+02 2.3e+02  1  0  1  0 17  11  0  6  2 17     0
MatGetRow             30 1.9 5.8854e-05 1.9 0.00e+00 0.0 0.0e+00 0.0e+00 0.0e+00  0  0  0  0  0   0  0  0  0  0     0
MatPartitioning        1 1.0 1.6367e-02 1.0 0.00e+00 0.0 0.0e+00 0.0e+00 2.1e+00  0  0  0  0  0   0  0  0  0  0     0
MatCoarsen             1 1.0 1.8267e-01 1.0 0.00e+00 0.0 1.1e+08 2.6e+01 6.0e+01  0  0 11  0  4   0  0 60  2  4     0
MatZeroEntries        11 1.0 3.4275e-02 1.5 0.00e+00 0.0 0.0e+00 0.0e+00 0.0e+00  0  0  0  0  0   0  0  0  0  0     0
MatTranspose           1 1.0 2.0132e-02 1.0 0.00e+00 0.0 2.8e+06 2.7e+01 1.3e+01  0  0  0  0  1   0  0  1  0  1     0
MatMatMatMult          5 1.0 7.1434e+00 1.0 5.24e+07 1.1 8.4e+06 8.3e+03 1.6e+02  2  1  1  3 12  12 13  4 48 12 59799
MatMatMatMultSym       5 1.0 4.7113e+00 1.0 0.00e+00 0.0 7.4e+06 6.5e+03 1.4e+02  1  0  1  2 10   8  0  4 33 10     0
MatMatMatMultNum       5 1.0 2.4327e+00 1.0 5.24e+07 1.1 9.7e+05 2.3e+04 2.0e+01  1  1  0  1  1   4 13  1 15  1 175592
MatPtAP                1 1.0 1.2860e-02 1.2 1.47e+0313.8 1.1e+06 2.0e+01 1.7e+01  0  0  0  0  1   0  0  1  0  1   371
MatPtAPSymbolic        1 1.0 8.4653e-03 1.3 0.00e+00 0.0 1.1e+06 1.9e+01 7.0e+00  0  0  0  0  1   0  0  1  0  1     0
MatPtAPNumeric         1 1.0 4.3979e-03 1.0 1.47e+0313.8 2.6e+04 3.4e+01 1.0e+01  0  0  0  0  1   0  0  0  0  1  1083
MatTrnMatMult          1 1.0 4.7198e-02 1.0 1.36e+05117.1 5.7e+06 4.4e+02 1.9e+01  0  0  1  0  1   0  0  3  2  1 18377
MatTrnMatMultSym       1 1.0 3.9363e-02 1.0 0.00e+00 0.0 5.2e+06 2.5e+02 1.7e+01  0  0  0  0  1   0  0  3  1  1     0
MatTrnMatMultNum       1 1.0 7.8577e-03 1.0 1.36e+05117.1 5.2e+05 2.3e+03 2.0e+00  0  0  0  0  0   0  0  0  1  0 110384
MatGetLocalMat        23 1.0 4.6687e-01 1.1 0.00e+00 0.0 0.0e+00 0.0e+00 0.0e+00  0  0  0  0  0   1  0  0  0  0     0
MatGetBrAoCol         21 1.0 1.8330e-01 1.5 0.00e+00 0.0 4.9e+06 1.4e+04 0.0e+00  0  0  0  3  0   0  0  3 48  0     0
MatGetSymTrans         2 1.0 1.0664e-05 1.6 0.00e+00 0.0 0.0e+00 0.0e+00 0.0e+00  0  0  0  0  0   0  0  0  0  0     0
SFSetGraph             7 1.0 8.0059e-04 2.4 0.00e+00 0.0 0.0e+00 0.0e+00 0.0e+00  0  0  0  0  0   0  0  0  0  0     0
SFBcastBegin          61 1.0 6.6486e-02 5.0 0.00e+00 0.0 1.1e+08 2.6e+01 1.0e+00  0  0 11  0  0   0  0 60  2  0     0
SFBcastEnd            61 1.0 1.1070e-01 9.5 0.00e+00 0.0 0.0e+00 0.0e+00 0.0e+00  0  0  0  0  0   0  0  0  0  0     0
SFReduceBegin          6 1.0 2.9004e-03 1.3 0.00e+00 0.0 1.1e+06 2.8e+01 6.0e+00  0  0  0  0  0   0  0  1  0  0     0
SFReduceEnd            6 1.0 3.1766e-04 2.3 0.00e+00 0.0 0.0e+00 0.0e+00 0.0e+00  0  0  0  0  0   0  0  0  0  0     0
PCGAMGgraph_AGG        1 1.0 3.5712e-02 1.0 5.72e+02 2.9 5.3e+06 2.7e+01 2.7e+01  0  0  1  0  2   0  0  3  0  2   124
PCGAMGcoarse_AGG       1 1.0 3.9072e-01 1.0 1.36e+05117.1 1.3e+08 4.5e+01 9.5e+01  0  0 12  0  7   1  0 67  4  7  2220
PCGAMGProl_AGG         1 1.0 1.0237e-01 1.2 0.00e+00 0.0 3.7e+06 2.6e+01 2.4e+01  0  0  0  0  2   0  0  2  0  2     0
PCGAMGPOpt_AGG         1 1.0 2.9931e-06 1.7 0.00e+00 0.0 0.0e+00 0.0e+00 0.0e+00  0  0  0  0  0   0  0  0  0  0     0
PCSetUp                3 1.0 1.3296e+01 1.0 5.26e+07 1.1 1.5e+08 5.1e+02 4.4e+02  3  1 14  4 32  23 14 79 53 32 32197
Warning -- total time of even greater than time of entire stage -- something is wrong with the timer
PCApply               23 1.0 4.2035e+02 1.0 9.00e+09 1.0 8.6e+08 2.2e+03 0.0e+00 88 96 82 93  0 71022934511307  0 172660
KSPGMRESOrthog        10 1.0 6.2083e-0317.1 1.48e+03 1.8 0.0e+00 0.0e+00 1.0e+01  0  0  0  0  1   0  0  0  0  1  1134
KSPSetUp              11 1.0 8.6520e-02 1.1 0.00e+00 0.0 0.0e+00 0.0e+00 1.8e+01  0  0  0  0  1   0  0  0  0  1     0
Warning -- total time of even greater than time of entire stage -- something is wrong with the timer
KSPSolve               1 1.0 4.2223e+02 1.0 9.34e+09 1.0 8.6e+08 2.2e+03 7.1e+01 89 99 82 94  5 71823794531329  5 178362
MGSetup Level 0        1 1.0 1.5089e-03 1.8 0.00e+00 0.0 0.0e+00 0.0e+00 2.0e+00  0  0  0  0  0   0  0  0  0  0     0
MGSetup Level 1        1 1.0 1.9444e-03 3.0 0.00e+00 0.0 0.0e+00 0.0e+00 2.0e+00  0  0  0  0  0   0  0  0  0  0     0
MGSetup Level 2        1 1.0 5.0836e-04 1.0 0.00e+00 0.0 0.0e+00 0.0e+00 2.0e+00  0  0  0  0  0   0  0  0  0  0     0
MGSetup Level 3        1 1.0 5.3544e-04 1.1 0.00e+00 0.0 0.0e+00 0.0e+00 2.0e+00  0  0  0  0  0   0  0  0  0  0     0
MGSetup Level 4        1 1.0 8.7173e-04 1.4 0.00e+00 0.0 0.0e+00 0.0e+00 2.0e+00  0  0  0  0  0   0  0  0  0  0     0
MGSetup Level 5        1 1.0 4.5800e-03 1.2 0.00e+00 0.0 0.0e+00 0.0e+00 2.0e+00  0  0  0  0  0   0  0  0  0  0     0
Warning -- total time of even greater than time of entire stage -- something is wrong with the timer
SNESSolve              1 1.0 4.3803e+02 1.0 9.39e+09 1.0 1.0e+09 2.0e+03 6.5e+02 92100 97 99 47 74523935361397 47 172919
SNESFunctionEval       2 1.0 4.6944e-01 1.0 0.00e+00 0.0 5.0e+06 2.1e+03 0.0e+00  0  0  0  1  0   1  0  3  7  0     0
SNESJacobianEval       1 1.0 1.5332e+01 1.0 5.26e+07 1.1 1.5e+08 5.7e+02 5.8e+02  3  1 15  4 42  26 14 81 61 42 27921

--- Event Stage 1: MG Apply

VecScale            4485 1.0 6.3656e-02 1.7 2.93e+07 2.6 0.0e+00 0.0e+00 0.0e+00  0  0  0  0  0   0  0  0  0  0 3565465
VecCopy               23 1.0 8.9825e-05 1.5 0.00e+00 0.0 0.0e+00 0.0e+00 0.0e+00  0  0  0  0  0   0  0  0  0  0     0
VecSet               299 1.0 9.4390e-03 1.8 0.00e+00 0.0 0.0e+00 0.0e+00 0.0e+00  0  0  0  0  0   0  0  0  0  0     0
VecAYPX              299 1.0 4.1917e-02 1.1 3.54e+06 1.0 0.0e+00 0.0e+00 0.0e+00  0  0  0  0  0   0  0  0  0  0 674461
VecAXPBYCZ            92 1.0 2.5681e-04 1.4 3.22e+03 1.8 0.0e+00 0.0e+00 0.0e+00  0  0  0  0  0   0  0  0  0  0 60987
VecScatterBegin     5014 1.0 2.0303e+00 2.1 0.00e+00 0.0 8.6e+08 2.2e+03 0.0e+00  0  0 82 93  0   0  0100100  0     0
VecScatterEnd       5014 1.0 2.9586e+02 1.2 0.00e+00 0.0 0.0e+00 0.0e+00 0.0e+00 56  0  0  0  0  64  0  0  0  0     0
MatMult              368 1.0 4.0193e+00 2.5 1.55e+08 1.0 7.1e+07 7.5e+02 0.0e+00  1  2  7  3  0   1  2  8  3  0 314726
MatMultAdd           138 1.0 2.4167e+02228.0 3.27e+07 1.0 2.1e+07 4.0e+02 0.0e+00 51  0  2  0  0  58  0  2  0  0  1107
MatMultTranspose      23 1.0 2.4059e+02389621.6 1.84e+02 4.0 1.9e+05 1.3e+01 0.0e+00  0  0  0  0  0   0  0  0  0  0     0
MatSolve              23 0.0 1.0769e-02 0.0 1.76e+06 0.0 0.0e+00 0.0e+00 0.0e+00  0  0  0  0  0   0  0  0  0  0   163
MatSOR               368 1.0 1.7721e+02 1.1 8.80e+09 1.0 7.7e+08 2.4e+03 0.0e+00 36 94 73 90  0  42 98 89 97  0 400746
MatLUFactorSym         1 1.0 4.7762e-0380.4 0.00e+00 0.0 0.0e+00 0.0e+00 0.0e+00  0  0  0  0  0   0  0  0  0  0     0
MatLUFactorNum         1 1.0 2.3410e-025067.2 2.48e+06 0.0 0.0e+00 0.0e+00 0.0e+00  0  0  0  0  0   0  0  0  0  0   106
MatResidual          138 1.0 2.8644e+00 1.9 1.50e+08 1.0 2.8e+07 1.7e+03 0.0e+00  0  2  3  2  0   0  2  3  2  0 425426
MatGetRowIJ            1 0.0 2.0386e-04 0.0 0.00e+00 0.0 0.0e+00 0.0e+00 0.0e+00  0  0  0  0  0   0  0  0  0  0     0
MatGetOrdering         1 0.0 1.7743e-03 0.0 0.00e+00 0.0 0.0e+00 0.0e+00 0.0e+00  0  0  0  0  0   0  0  0  0  0     0
PCSetUp                5 1.0 3.0153e-0298.5 2.48e+06 0.0 0.0e+00 0.0e+00 0.0e+00  0  0  0  0  0   0  0  0  0  0    82
PCSetUpOnBlocks       23 1.0 3.0208e-0286.6 2.48e+06 0.0 0.0e+00 0.0e+00 0.0e+00  0  0  0  0  0   0  0  0  0  0    82
PCApply               23 1.0 2.4135e+02 1.0 4.27e+0695.7 4.9e+07 1.9e+01 0.0e+00 51  0  5  0  0  58  0  6  0  0     3
KSPSetUp               2 1.0 3.4931e-06 2.1 0.00e+00 0.0 0.0e+00 0.0e+00 0.0e+00  0  0  0  0  0   0  0  0  0  0     0
KSPSolve             253 1.0 4.1829e+02 1.0 8.80e+09 1.0 8.2e+08 2.2e+03 0.0e+00 87 94 78 90  0  99 98 95 97  0 169782
MGSmooth Level 0      23 1.0 2.4136e+02 1.0 4.27e+0695.7 4.9e+07 1.9e+01 0.0e+00 51  0  5  0  0  58  0  6  0  0     3
MGSmooth Level 1      46 1.0 8.7751e-01 2.6 4.96e+06 1.6 1.7e+08 8.0e+01 0.0e+00  0  0 16  1  0   0  0 20  1  0 45242
MGResid Level 1       23 1.0 9.1129e-03 1.3 1.05e+05 1.7 4.4e+06 8.0e+01 0.0e+00  0  0  0  0  0   0  0  1  0  0 91862
MGInterp Level 1      46 1.0 5.5773e-01104.0 8.92e+03 1.6 4.8e+06 1.9e+01 0.0e+00  0  0  0  0  0   0  0  1  0  0   128
MGSmooth Level 2      46 1.0 8.2795e-01 1.3 4.44e+07 1.3 1.7e+08 2.2e+02 0.0e+00  0  0 16  2  0   0  0 20  2  0 425549
MGResid Level 2       23 1.0 1.3412e-02 1.4 8.42e+05 1.3 4.4e+06 2.2e+02 0.0e+00  0  0  0  0  0   0  0  1  0  0 506793
MGInterp Level 2      46 1.0 1.4987e-0117.4 7.14e+04 1.3 4.8e+06 5.0e+01 0.0e+00  0  0  0  0  0   0  0  1  0  0  3857
MGSmooth Level 3      46 1.0 4.3131e+00 1.4 3.78e+08 1.1 1.7e+08 7.1e+02 0.0e+00  1  4 16  6  0   1  4 20  6  0 701708
MGResid Level 3       23 1.0 9.6135e-02 2.8 6.74e+06 1.1 4.4e+06 7.1e+02 0.0e+00  0  0  0  0  0   0  0  1  0  0 569797
MGInterp Level 3      46 1.0 2.5676e-02 2.1 5.71e+05 1.1 4.8e+06 1.6e+02 0.0e+00  0  0  0  0  0   0  0  1  0  0 181177
MGSmooth Level 4      46 1.0 4.8059e+01 1.2 3.11e+09 1.1 1.7e+08 2.5e+03 0.0e+00  9 33 16 21  0  10 35 20 23  0 524125
MGResid Level 4       23 1.0 7.8370e-01 2.2 5.39e+07 1.1 4.4e+06 2.5e+03 0.0e+00  0  1  0  1  0   0  1  1  1  0 561222
MGInterp Level 4      46 1.0 4.7778e-0111.4 4.57e+06 1.1 4.8e+06 5.8e+02 0.0e+00  0  0  0  0  0   0  0  1  0  0 78117
MGSmooth Level 5      46 1.0 1.3137e+02 1.2 5.26e+09 1.0 8.1e+07 1.5e+04 0.0e+00 26 56  8 60  0  30 58  9 64  0 322831
MGResid Level 5       23 1.0 2.0665e+00 2.5 8.87e+07 1.0 2.1e+06 1.5e+04 0.0e+00  0  1  0  2  0   0  1  0  2  0 346594
MGInterp Level 5      46 1.0 1.6239e+00 5.4 3.66e+07 1.0 4.8e+06 2.2e+03 0.0e+00  0  0  0  1  0   0  0  1  1  0 184131
------------------------------------------------------------------------------------------------------------------------

Memory usage is given in bytes:

Object Type          Creations   Destructions     Memory  Descendants' Mem.
Reports information only for process 0.

--- Event Stage 0: Main Stage

              Vector   481            356     85913848     0
      Vector Scatter    79             15      4212244     0
             MatMFFD     1              1          840     0
              Matrix   122             28        89512     0
 Matrix Partitioning     1              1          720     0
      Matrix Coarsen     1              1          692     0
    Distributed Mesh    50             10        50352     0
Star Forest Bipartite Graph   107             27        23776     0
     Discrete System    50             10         8640     0
           Index Set   166            164      2968200     0
   IS L to G Mapping    48              8      2412928     0
         PetscRandom     2              2         1360     0
      Preconditioner    14              4         3952     0
       Krylov Solver    13              4        34600     0
     DMKSP interface     1              1          704     0
                SNES     1              1         1480     0
      SNESLineSearch     1              1          912     0
              DMSNES     1              1          720     0
              Viewer     1              0            0     0

--- Event Stage 1: MG Apply

              Vector   230            230     55517216     0
              Matrix     1              0            0     0
           Index Set     3              0            0     0
========================================================================================================================
Average time to get PetscTime(): 1.20063e-07
Average time for MPI_Barrier(): 3.63162e-06
Average time for zero size MPI_Send(): 1.04575e-05
#PETSc Option Table entries:
-AddRandomNoiseParticles 0
-ParamFile FallingBlock_FC_canonical.dat
-al_ksp_type preonly
-al_pc_factor_mat_solver_package mumps
-al_pc_type lu
-crs_ksp_type preonly
-crs_pc_gamg_agg_nsmooths 0
-crs_pc_gamg_repartition true
-crs_pc_gamg_sym_graph true
-crs_pc_gamg_verbose 1
-crs_pc_type gamg
-gmg_mg_levels_ksp_max_it 20
-gmg_mg_levels_ksp_richardson_scale 0.5
-gmg_mg_levels_ksp_type richardson
-gmg_pc_mg_cycle_type v
-gmg_pc_mg_galerkin
-gmg_pc_mg_levels 6
-gmg_pc_mg_log
-gmg_pc_mg_type multiplicative
-gmg_pc_type mg
-gmg_pc_view
-js_ksp_converged_reason
-js_ksp_max_it 1000
-js_ksp_min_it 2
-js_ksp_monitor
-js_ksp_rtol 1e-8
-js_ksp_type gcr
-log_summary
-nel 1024,512,512
-npicard 3
-pgamma 1e3
-pstokes mg
-restart 0
-save_breakpoints 0
-snes_atol 1e-12
-snes_max_funcs 50000
-snes_max_it 25
-snes_monitor
-snes_rtol 1e-6
-snes_stol 1e-6
-snes_type ksponly
-use_fdstag_canonical
#End of PETSc Option Table entries
Compiled with FORTRAN kernels
Compiled with full precision matrices (default)
sizeof(short) 2 sizeof(int) 4 sizeof(long) 8 sizeof(void*) 8 sizeof(PetscScalar) 8 sizeof(PetscInt) 8
Configure options: --known-level1-dcache-size=32768 --known-level1-dcache-linesize=32 --known-level1-dcache-assoc=0 --known-mpi-long-double=1 --known-mpi-int64_t=1 --known-mpi-c-double-complex=1 --prefix=/homeb/hmz30/hmz300/LIB/petsc/3.5.2/JUQUEEN_OPT_64bit PETSC_ARCH=JUQUEEN_OPT_64bit --with-cc=mpixlc_r --with-cxx=mpixlcxx_r --with-fc="mpixlf77_r -qnosave" --with-large-file-io --with-64-bit-indices --with-blas-lapack-lib="-L/bgsys/local/lib -lesslbg -L/bgsys/local/lapack/3.4.2/lib -llapack -L/bgsys/local/lib -lesslbg" --download-superlu_dist=1 --download-parmetis=1 --download-metis=1 --download-hypre=1 --download-blacs=1 --download-scalapack=1 --with-x=0 --with-is-color-value-type=short --with-shared-libraries=0 -COPTFLAGS="-O3 -qstrict -qmaxmem=-1" -CXXOPTFLAGS="-O3 -qstrict -qmaxmem=-1" -FOPTFLAGS="-O3 -qstrict -qmaxmem=-1" --with-debugging=0 --with-fortran-kernels=1 --with-batch=1 --known-mpi-shared-libraries=0 --known-memcmp-ok --known-sizeof-char=1 --known-sizeof-void-p=8 --known-sizeof-short=2 --known-sizeof-int=4 --known-sizeof-long=8 --known-sizeof-size_t=8 --known-sizeof-long-long=8 --known-sizeof-float=4 --known-sizeof-double=8 --known-bits-per-byte=8 --known-sizeof-MPI_Comm=4 --known-sizeof-MPI_Fint=4
-----------------------------------------
Libraries compiled on Fri Oct 10 13:43:21 2014 on juqueen3.zam.kfa-juelich.de 
Machine characteristics: Linux-2.6.32-431.17.1.el6.ppc64-ppc64-with-redhat-6.5-Santiago
Using PETSc directory: /homeb/hmz30/hmz300/LIB/petsc-3.5.2
Using PETSc arch: JUQUEEN_OPT_64bit
-----------------------------------------

Using C compiler: mpixlc_r  -D_LARGEFILE64_SOURCE -D_FILE_OFFSET_BITS=64 -O3 -qstrict -qmaxmem=-1  ${COPTFLAGS} ${CFLAGS}
Using Fortran compiler: mpixlf77_r -qnosave  -O3 -qstrict -qmaxmem=-1   ${FOPTFLAGS} ${FFLAGS} 
-----------------------------------------

Using include paths: -I/homeb/hmz30/hmz300/LIB/petsc-3.5.2/JUQUEEN_OPT_64bit/include -I/homeb/hmz30/hmz300/LIB/petsc-3.5.2/include -I/homeb/hmz30/hmz300/LIB/petsc-3.5.2/include -I/homeb/hmz30/hmz300/LIB/petsc-3.5.2/JUQUEEN_OPT_64bit/include -I/bgsys/drivers/V1R2M2/ppc64/comm/include -I/bgsys/drivers/V1R2M2/ppc64/comm/lib/xl -I/bgsys/drivers/V1R2M2/ppc64 -I/bgsys/drivers/V1R2M2/ppc64/comm/sys/include -I/bgsys/drivers/V1R2M2/ppc64/spi/include -I/bgsys/drivers/V1R2M2/ppc64/spi/include/kernel/cnk
-----------------------------------------

Using C linker: mpixlc_r
Using Fortran linker: mpixlf77_r -qnosave
Using libraries: -Wl,-rpath,/homeb/hmz30/hmz300/LIB/petsc-3.5.2/JUQUEEN_OPT_64bit/lib -L/homeb/hmz30/hmz300/LIB/petsc-3.5.2/JUQUEEN_OPT_64bit/lib -lpetsc -Wl,-rpath,/homeb/hmz30/hmz300/LIB/petsc-3.5.2/JUQUEEN_OPT_64bit/lib -L/homeb/hmz30/hmz300/LIB/petsc-3.5.2/JUQUEEN_OPT_64bit/lib -lHYPRE -L/bgsys/drivers/V1R2M2/ppc64/comm/lib -L/bgsys/drivers/V1R2M2/ppc64/comm/lib64 -L/bgsys/drivers/V1R2M2/ppc64/spi/lib -L/bgsys/drivers/V1R2M2/ppc64/comm/sys/lib -L/opt/ibmcmp/xlsmp/bg/3.1/bglib64 -L/opt/ibmcmp/xlmass/bg/7.3/bglib64 -L/opt/ibmcmp/vac/bg/12.1/bglib64 -L/opt/ibmcmp/vacpp/bg/12.1/bglib64 -L/bgsys/drivers/toolchain/V1R2M2_base/gnu-linux/lib/gcc/powerpc64-bgq-linux/4.4.7 -L/bgsys/drivers/toolchain/V1R2M2_base/gnu-linux/lib/gcc -L/bgsys/drivers/toolchain/V1R2M2_base/gnu-linux/powerpc64-bgq-linux/lib -Wl,-rpath,/opt/ibmcmp/lib64/bg/bglib64 -lmpichcxx-xl -libmc++ -lscalapack -lsuperlu_dist_3.3 -L/bgsys/local/lib -lesslbg -L/bgsys/local/lapack/3.4.2/lib -llapack -lesslbg -lparmetis -lmetis -lpthread -L/opt/ibmcmp/xlf/bg/14.1/bglib64 -lmpichf77-xl -lxlf90_r -lxlomp_ser -lxlfmath -lm -lmpichcxx-xl -libmc++ -L/bgsys/drivers/V1R2M2/ppc64/comm/lib -L/bgsys/drivers/V1R2M2/ppc64/comm/lib -L/bgsys/drivers/V1R2M2/ppc64/comm/lib64 -L/bgsys/drivers/V1R2M2/ppc64/comm/lib -L/bgsys/drivers/V1R2M2/ppc64/spi/lib -L/bgsys/drivers/V1R2M2/ppc64/comm/sys/lib -L/bgsys/drivers/V1R2M2/ppc64/spi/lib -L/bgsys/drivers/V1R2M2/ppc64/comm/sys/lib -L/bgsys/drivers/V1R2M2/ppc64/comm/lib64 -L/bgsys/drivers/V1R2M2/ppc64/comm/lib -L/bgsys/drivers/V1R2M2/ppc64/spi/lib -L/bgsys/drivers/V1R2M2/ppc64/comm/lib -L/opt/ibmcmp/xlsmp/bg/3.1/bglib64 -L/opt/ibmcmp/xlmass/bg/7.3/bglib64 -L/opt/ibmcmp/vac/bg/12.1/bglib64 -L/opt/ibmcmp/vacpp/bg/12.1/bglib64 -Wl,-rpath,/opt/ibmcmp/lib64/bg/bglib64 -L/bgsys/drivers/toolchain/V1R2M2_base/gnu-linux/lib/gcc/powerpc64-bgq-linux/4.4.7 -L/bgsys/drivers/toolchain/V1R2M2_base/gnu-linux/lib/gcc -L/bgsys/drivers/toolchain/V1R2M2_base/gnu-linux/powerpc64-bgq-linux/lib -ldl -lmpich-xl -lopa-xl -lmpl-xl -lpami-gcc -lSPI -lSPI_cnk -lrt -lpthread -lstdc++ -lxlopt -lxl -lnss_files -lnss_dns -lresolv -lgcc_eh -ldl  
-----------------------------------------

