 Parsing input file : FallingBlock_FC_canonical.dat 
# Adding PetscOption: -npicard 3 
# Adding PetscOption: -snes_monitor 
# Adding PetscOption: -snes_atol 1e-12 
# Adding PetscOption: -snes_rtol 1e-6 
# Adding PetscOption: -snes_stol 1e-6 
# Adding PetscOption: -snes_max_it 25 
# Adding PetscOption: -snes_max_funcs 50000 
# Adding PetscOption: -snes_type ksponly 
# Adding PetscOption: -js_ksp_type gcr 
# Adding PetscOption: -js_ksp_max_it 1000 
# Adding PetscOption: -js_ksp_min_it 2 
# Adding PetscOption: -js_ksp_converged_reason 
# Adding PetscOption: -js_ksp_monitor 
# Adding PetscOption: -js_ksp_rtol 1e-8 
# Adding PetscOption: -pstokes mg 
# Adding PetscOption: -pgamma 1e3 
# Adding PetscOption: -al_ksp_type preonly 
# Adding PetscOption: -al_pc_type lu 
# Adding PetscOption: -al_pc_factor_mat_solver_package mumps 
# Adding PetscOption: -gmg_pc_type mg 
# Adding PetscOption: -gmg_pc_mg_levels 4 
# Adding PetscOption: -gmg_pc_mg_galerkin 
# Adding PetscOption: -gmg_pc_mg_type multiplicative 
# Adding PetscOption: -gmg_pc_mg_cycle_type v 
# Adding PetscOption: -gmg_pc_view 
# Adding PetscOption: -gmg_pc_mg_log 
# Adding PetscOption: -gmg_mg_levels_ksp_type richardson 
# Adding PetscOption: -gmg_mg_levels_ksp_richardson_scale 0.5 
# Adding PetscOption: -gmg_mg_levels_ksp_max_it 20 
# Adding PetscOption: -crs_ksp_type preonly 
# Adding PetscOption: -crs_pc_type gamg - 
# Adding PetscOption: -crs_pc_gamg_sym_graph true 
# Adding PetscOption: -crs_pc_gamg_agg_nsmooths 0 
# Adding PetscOption: -crs_pc_gamg_verbose 1 
# Adding PetscOption: -crs_pc_gamg_repartition true 
# Adding PetscOption: -use_fdstag_canonical 
# Adding PetscOption: -AddRandomNoiseParticles 0 
# Adding PetscOption: -restart 0 
# Adding PetscOption: -save_breakpoints 0 
# -------------------------------------------------------------------------- 
#                   Lithosphere and Mantle Evolution Model                   
#              Current Revision: 5486 - 2014-10-15 00:00:33		     
#  Modified items: LaMEMLib_FDSTAG.c, Mesh.c, 
#     Compiled: Date: Oct 15 2014 - Time: 10:11:48 - Mode:  	    
# -------------------------------------------------------------------------- 
#        STAGGERED-GRID FINITE DIFFERENCE CANONICAL IMPLEMENTATION           
# -------------------------------------------------------------------------- 
# --------------------------------------------------------------------------
# Phase material parameters read from FallingBlock_FC_canonical.dat: 
#    phase_0 (id=0), VISCOSITY, constant [0,0,0] = 1.000000e+00 
#    phase_0 (id=0), ELASTICITY, constant [0,1,0] = 5.000000e+10, 1.000000e+00 
#    phase_0 (id=0), DENSITY, temperature-dependent [0,2,0] = 1.000000e+00, 0.000000e+00, 0.000000e+00 
#    phase_0 (id=0), ENERGY, constant [0,3,0] = 3.000000e+00 1.050000e+03 0.000000e+00 0.000000e+00 
#    phase_1 (id=1), VISCOSITY, constant [1,0,0] = 1.000000e+00 
#    phase_1 (id=1), ELASTICITY, constant [1,1,0] = 5.000000e+10, 1.000000e+00 
#    phase_1 (id=1), DENSITY, temperature-dependent [1,2,0] = 2.000000e+00, 0.000000e+00, 0.000000e+00 
#    phase_1 (id=1), ENERGY, constant [1,3,0] = 3.000000e+00 1.050000e+03 0.000000e+00 0.000000e+00 
 Element-type used         : ;  [Q1P0 Q2Pm1_global Q2Pm1_local Q1Q1 FDSTAG] (change with -vpt_element)
 Total # of cpu's          : 2048 
 Resolution [nx,ny,nz]     : 513 x 513 x 257 
 Total # of velocity dof's : 202903299 
 Computing mean material per element using arithmetic averaging from integration points 
 Employing code in an Eulerian manner 
 Gravity angle with z-axis =  0 
 Approximate Aspect ratio of cells [dx/dz, dy/dz] = [0.5 0.5] 
 Number of tracers/cell in [x,y,z]-direction = [2,2,2] 
 NumSurfaceNodes=51  nz=257 
 # Not employing nonlinear iterations 
 BC employed: BC.[Left Right; Front Back; Lower Upper]=[1 1; 1 1; 1 1] 
# Initial time step: 0.001 years 
 Input is assumed to be in non-dimensional units 
# Starting marker initialization routine
# FALLING BLOCK SETUP 
# Setup Parameters: Block coordinates - [left,right]=[0.25,0.75]; [front,back]=[0.25,0.75]; [bottom,top]=[0.25,0.75] 
# Finished marker initialization routine
Coarse grid size per processor [nx=2][ny=2][nz=2] 
Number of multigrid levels: 5
  0 SNES Function norm 9.590608739804e+03 
	[0]PCSetUp_GAMG level 0 N=67584, n data rows=1, n data cols=1, nnz/row (ave)=41, np=2048
	[0]PCGAMGFilterGraph 52.2365% nnz after filtering, with threshold 0, 41.2188 nnz ave. (N=67584)
	[0]maxIndSetAgg removed 12 of 32 vertices.  0 selected.
		[0]PCGAMGProlongator_AGG New grid 491 nodes
	[0]createLevel repartition: size (active): 2048 --> 1, neq = 0
		[0]PCSetUp_GAMG 1) N=491, n data cols=1, nnz/row (ave)=18, 1 active pes
	[0]PCSetUp_GAMG 2 levels, grid complexity = 7.73465
			PCSetUp_GAMG PC setup max eigen=2.052104e+00 min=1.585025e-01 on level 1 (N=67584)
    Residual norms for js_ solve.
    0 KSP Residual norm 9.590608739804e+03 
    1 KSP Residual norm 4.487569628019e+03 
    2 KSP Residual norm 1.466325294077e+03 
    3 KSP Residual norm 5.803736830950e+02 
    4 KSP Residual norm 4.211624415990e+02 
    5 KSP Residual norm 2.089162503136e+02 
    6 KSP Residual norm 8.673879026230e+01 
    7 KSP Residual norm 3.141133912039e+01 
    8 KSP Residual norm 9.159587206426e+00 
    9 KSP Residual norm 3.946539722348e+00 
   10 KSP Residual norm 2.182585422077e+00 
   11 KSP Residual norm 1.025163680453e+00 
   12 KSP Residual norm 2.857245458628e-01 
   13 KSP Residual norm 1.055130185745e-01 
   14 KSP Residual norm 9.205502291740e-02 
   15 KSP Residual norm 5.620736579636e-02 
   16 KSP Residual norm 1.567305408154e-02 
   17 KSP Residual norm 9.305878186724e-03 
   18 KSP Residual norm 3.348834440378e-03 
   19 KSP Residual norm 9.394819629234e-04 
   20 KSP Residual norm 5.414718527911e-04 
   21 KSP Residual norm 3.094417035631e-04 
   22 KSP Residual norm 7.817685425437e-05 
  Linear solve converged due to CONVERGED_RTOL iterations 22
  1 SNES Function norm 7.817696707456e-05 
CONVERGED_ITS Number of nonlinear iterations = 1
#  Nonlinear solve took 196.774 s 
************************************************************************************************************************
***             WIDEN YOUR WINDOW TO 120 CHARACTERS.  Use 'enscript -r -fCourier9' to print this document            ***
************************************************************************************************************************

---------------------------------------------- PETSc Performance Summary: ----------------------------------------------

./LaMEM_64bit on a JUQUEEN_OPT_64bit named R12-ID-J01.zam.kfa-juelich.de with 2048 processors, by Unknown Thu Oct 16 07:24:47 2014
Using Petsc Release Version 3.5.2, Sep, 08, 2014 

                         Max       Max/Min        Avg      Total 
Time (sec):           2.106e+02      1.00001   2.106e+02
Objects:              1.172e+03      1.00085   1.171e+03
Flops:                8.970e+09      1.04048   8.831e+09  1.809e+13
Flops/sec:            4.259e+07      1.04049   4.193e+07  8.587e+10
MPI Messages:         9.813e+04      3.80105   8.185e+04  1.676e+08
MPI Message Lengths:  2.496e+08      2.06250   2.785e+03  4.669e+11
MPI Reductions:       1.201e+03      1.00250

Flop counting convention: 1 flop = 1 real number operation of type (multiply/divide/add/subtract)
                            e.g., VecAXPY() for real vectors of length N --> 2N flops
                            and VecAXPY() for complex vectors of length N --> 8N flops

Summary of Stages:   ----- Time ------  ----- Flops -----  --- Messages ---  -- Message Lengths --  -- Reductions --
                        Avg     %Total     Avg     %Total   counts   %Total     Avg         %Total   counts   %Total 
 0:      Main Stage: 2.9114e+01  13.8%  7.4561e+11   4.1%  2.090e+07  12.5%  2.154e+02        7.7%  1.198e+03 100.0% 
 1:        MG Apply: 1.8151e+02  86.2%  1.7341e+13  95.9%  1.467e+08  87.5%  2.570e+03       92.3%  0.000e+00   0.0% 

------------------------------------------------------------------------------------------------------------------------
See the 'Profiling' chapter of the users' manual for details on interpreting output.
Phase summary info:
   Count: number of times phase was executed
   Time and Flops: Max - maximum over all processors
                   Ratio - ratio of maximum to minimum over all processors
   Mess: number of messages sent
   Avg. len: average message length (bytes)
   Reduct: number of global reductions
   Global: entire computation
   Stage: stages of a computation. Set stages with PetscLogStagePush() and PetscLogStagePop().
      %T - percent time in this phase         %F - percent flops in this phase
      %M - percent messages in this phase     %L - percent message lengths in this phase
      %R - percent reductions in this phase
   Total Mflop/s: 10e-6 * (sum of flops over all processors)/(max time over all processors)
------------------------------------------------------------------------------------------------------------------------
Event                Count      Time (sec)     Flops                             --- Global ---  --- Stage ---   Total
                   Max Ratio  Max     Ratio   Max  Ratio  Mess   Avg len Reduct  %T %F %M %L %R  %T %F %M %L %R Mflop/s
------------------------------------------------------------------------------------------------------------------------

--- Event Stage 0: Main Stage

VecDotNorm2           22 1.0 4.0489e-01 5.9 1.18e+07 1.0 0.0e+00 0.0e+00 2.2e+01  0  0  0  0  2   1  3  0  0  2 58456
VecMDot               31 1.0 7.2912e+0086.2 6.20e+07 1.0 0.0e+00 0.0e+00 3.1e+01  1  1  0  0  3  10 17  0  0  3 17043
VecNorm               36 1.0 2.8007e-02 2.5 6.71e+06 1.0 0.0e+00 0.0e+00 3.6e+01  0  0  0  0  3   0  2  0  0  3 480223
VecScale              55 1.0 2.8886e-02 1.4 5.90e+06 1.0 0.0e+00 0.0e+00 0.0e+00  0  0  0  0  0   0  2  0  0  0 409718
VecCopy                1 1.0 3.5588e-06 1.7 0.00e+00 0.0 0.0e+00 0.0e+00 0.0e+00  0  0  0  0  0   0  0  0  0  0     0
VecSet               232 1.0 2.6345e-02 1.5 0.00e+00 0.0 0.0e+00 0.0e+00 0.0e+00  0  0  0  0  0   0  0  0  0  0     0
VecAXPY               69 1.0 9.2350e-02 1.1 1.82e+07 1.0 0.0e+00 0.0e+00 0.0e+00  0  0  0  0  0   0  5  0  0  0 396086
VecAYPX                1 1.0 2.5014e-03 1.8 1.34e+05 1.0 0.0e+00 0.0e+00 0.0e+00  0  0  0  0  0   0  0  0  0  0 107522
VecMAXPY              53 1.0 4.6390e-01 1.2 1.24e+08 1.0 0.0e+00 0.0e+00 0.0e+00  0  1  0  0  0   2 33  0  0  0 535730
VecAssemblyBegin       8 1.0 3.5979e-02 1.2 0.00e+00 0.0 0.0e+00 0.0e+00 2.1e+01  0  0  0  0  2   0  0  0  0  2     0
VecAssemblyEnd         8 1.0 5.2864e-05 1.2 0.00e+00 0.0 0.0e+00 0.0e+00 0.0e+00  0  0  0  0  0   0  0  0  0  0     0
VecScatterBegin      147 1.0 8.8844e-02 1.6 0.00e+00 0.0 5.6e+06 2.3e+03 0.0e+00  0  0  3  3  0   0  0 27 35  0     0
VecScatterEnd        147 1.0 1.4588e+00 8.2 0.00e+00 0.0 0.0e+00 0.0e+00 0.0e+00  0  0  0  0  0   2  0  0  0  0     0
VecSetRandom           1 1.0 1.2546e-05 1.4 0.00e+00 0.0 0.0e+00 0.0e+00 0.0e+00  0  0  0  0  0   0  0  0  0  0     0
VecNormalize          11 1.0 9.0252e-04 2.7 1.45e+03 1.4 0.0e+00 0.0e+00 1.1e+01  0  0  0  0  1   0  0  0  0  1  2471
Warning -- total time of even greater than time of entire stage -- something is wrong with the timer
MatMult               55 1.0 1.8570e+02 1.0 8.70e+09 1.0 1.5e+08 3.0e+03 0.0e+00 87 97 88 94  0 62823517071214  0 94412
MatSOR                11 1.0 2.9647e-04 1.7 2.56e+04 1.7 0.0e+00 0.0e+00 0.0e+00  0  0  0  0  0   0  0  0  0  0 107419
MatConvert             2 1.0 1.5384e-03 1.6 0.00e+00 0.0 0.0e+00 0.0e+00 3.0e+00  0  0  0  0  0   0  0  0  0  0     0
MatScale               1 1.0 4.2396e-04 3.4 4.58e+03 1.7 4.5e+04 8.2e+01 0.0e+00  0  0  0  0  0   0  0  0  0  0 21080
MatAssemblyBegin      61 1.0 5.7338e-01 4.3 0.00e+00 0.0 3.2e+05 7.0e+03 6.8e+01  0  0  0  0  6   1  0  2  6  6     0
MatAssemblyEnd        61 1.0 1.3427e+00 1.0 0.00e+00 0.0 1.7e+06 4.9e+02 2.0e+02  1  0  1  0 17   5  0  8  2 17     0
MatGetRow            178 1.4 2.4696e-04 1.5 0.00e+00 0.0 0.0e+00 0.0e+00 0.0e+00  0  0  0  0  0   0  0  0  0  0     0
MatPartitioning        1 1.0 1.3476e-02 1.1 0.00e+00 0.0 0.0e+00 0.0e+00 2.7e+00  0  0  0  0  0   0  0  0  0  0     0
MatCoarsen             1 1.0 8.0718e-02 1.0 0.00e+00 0.0 8.6e+06 1.3e+02 5.4e+01  0  0  5  0  5   0  0 41  3  5     0
MatZeroEntries         9 1.0 3.2447e-02 1.5 0.00e+00 0.0 0.0e+00 0.0e+00 0.0e+00  0  0  0  0  0   0  0  0  0  0     0
MatTranspose           1 1.0 9.1700e-03 1.0 0.00e+00 0.0 3.6e+05 2.4e+02 1.3e+01  0  0  0  0  1   0  0  2  0  1     0
MatMatMatMult          4 1.0 7.1565e+00 1.0 5.24e+07 1.1 1.4e+06 1.2e+04 1.3e+02  3  1  1  4 11  25 14  7 46 11 14865
MatMatMatMultSym       4 1.0 4.7138e+00 1.0 0.00e+00 0.0 1.2e+06 9.2e+03 1.1e+02  2  0  1  2  9  16  0  6 32  9     0
MatMatMatMultNum       4 1.0 2.4436e+00 1.0 5.24e+07 1.1 1.8e+05 3.0e+04 1.6e+01  1  1  0  1  1   8 14  1 15  1 43535
MatPtAP                1 1.0 6.8778e-03 1.1 5.55e+03 2.8 1.7e+05 6.7e+01 1.7e+01  0  0  0  0  1   0  0  1  0  1  1354
MatPtAPSymbolic        1 1.0 4.2467e-03 1.1 0.00e+00 0.0 1.5e+05 7.4e+01 7.0e+00  0  0  0  0  1   0  0  1  0  1     0
MatPtAPNumeric         1 1.0 2.6291e-03 1.0 5.55e+03 2.8 2.3e+04 2.1e+01 1.0e+01  0  0  0  0  1   0  0  0  0  1  3541
MatTrnMatMult          1 1.0 9.6848e-02 1.0 8.48e+05 6.9 4.8e+05 3.9e+03 1.9e+01  0  0  0  0  2   0  0  2  5  2 14686
MatTrnMatMultSym       1 1.0 5.7955e-02 1.0 0.00e+00 0.0 4.3e+05 2.2e+03 1.7e+01  0  0  0  0  1   0  0  2  3  1     0
MatTrnMatMultNum       1 1.0 3.8945e-02 1.0 8.48e+05 6.9 4.5e+04 2.1e+04 2.0e+00  0  0  0  0  0   0  0  0  3  0 36520
MatGetLocalMat        19 1.0 4.6642e-01 1.1 0.00e+00 0.0 0.0e+00 0.0e+00 0.0e+00  0  0  0  0  0   2  0  0  0  0     0
MatGetBrAoCol         17 1.0 2.0377e-01 1.6 0.00e+00 0.0 8.4e+05 1.9e+04 0.0e+00  0  0  1  4  0   1  0  4 45  0     0
MatGetSymTrans         2 1.0 1.5099e-05 1.7 0.00e+00 0.0 0.0e+00 0.0e+00 0.0e+00  0  0  0  0  0   0  0  0  0  0     0
SFSetGraph             6 1.0 7.4709e-04 2.0 0.00e+00 0.0 0.0e+00 0.0e+00 0.0e+00  0  0  0  0  0   0  0  0  0  0     0
SFBcastBegin          55 1.0 2.4820e-02 3.6 0.00e+00 0.0 8.6e+06 1.3e+02 1.0e+00  0  0  5  0  0   0  0 41  3  0     0
SFBcastEnd            55 1.0 2.5122e-02 3.6 0.00e+00 0.0 0.0e+00 0.0e+00 0.0e+00  0  0  0  0  0   0  0  0  0  0     0
SFReduceBegin          5 1.0 2.1097e-03 1.3 0.00e+00 0.0 1.4e+05 9.2e+01 5.0e+00  0  0  0  0  0   0  0  1  0  0     0
SFReduceEnd            5 1.0 2.7658e-04 2.4 0.00e+00 0.0 0.0e+00 0.0e+00 0.0e+00  0  0  0  0  0   0  0  0  0  0     0
PCGAMGgraph_AGG        1 1.0 2.2201e-02 1.0 4.58e+03 1.7 6.2e+05 2.6e+02 2.7e+01  0  0  0  0  2   0  0  3  0  2   403
PCGAMGcoarse_AGG       1 1.0 2.0819e-01 1.0 8.48e+05 6.9 9.7e+06 3.2e+02 8.9e+01  0  0  6  1  7   1  0 46  8  7  6832
PCGAMGProl_AGG         1 1.0 2.2256e-02 1.2 0.00e+00 0.0 3.3e+05 1.2e+02 2.4e+01  0  0  0  0  2   0  0  2  0  2     0
PCGAMGPOpt_AGG         1 1.0 3.2794e-06 1.8 0.00e+00 0.0 0.0e+00 0.0e+00 0.0e+00  0  0  0  0  0   0  0  0  0  0     0
PCSetUp                3 1.0 7.8051e+00 1.0 5.33e+07 1.1 1.3e+07 1.6e+03 4.0e+02  4  1  8  4 33  27 14 61 55 33 13832
Warning -- total time of even greater than time of entire stage -- something is wrong with the timer
PCApply               22 1.0 1.8473e+02 1.0 8.60e+09 1.0 1.5e+08 2.9e+03 0.0e+00 86 96 88 92  0 62323267021193  0 93872
KSPGMRESOrthog        10 1.0 2.8268e-03 9.2 9.62e+03 1.4 0.0e+00 0.0e+00 1.0e+01  0  0  0  0  1   0  0  0  0  1  5220
KSPSetUp              10 1.0 8.3542e-02 1.1 0.00e+00 0.0 0.0e+00 0.0e+00 1.6e+01  0  0  0  0  1   0  0  0  0  1     0
Warning -- total time of even greater than time of entire stage -- something is wrong with the timer
KSPSolve               1 1.0 1.8649e+02 1.0 8.92e+09 1.0 1.5e+08 3.0e+03 6.8e+01 89 99 88 94  6 64124117041214  6 96399
MGSetup Level 0        1 1.0 8.8105e-04 1.7 0.00e+00 0.0 0.0e+00 0.0e+00 2.0e+00  0  0  0  0  0   0  0  0  0  0     0
MGSetup Level 1        1 1.0 6.3814e-04 1.6 0.00e+00 0.0 0.0e+00 0.0e+00 2.0e+00  0  0  0  0  0   0  0  0  0  0     0
MGSetup Level 2        1 1.0 3.2110e-04 1.1 0.00e+00 0.0 0.0e+00 0.0e+00 2.0e+00  0  0  0  0  0   0  0  0  0  0     0
MGSetup Level 3        1 1.0 1.1346e-03 2.6 0.00e+00 0.0 0.0e+00 0.0e+00 2.0e+00  0  0  0  0  0   0  0  0  0  0     0
MGSetup Level 4        1 1.0 4.5576e-03 1.3 0.00e+00 0.0 0.0e+00 0.0e+00 2.0e+00  0  0  0  0  0   0  0  0  0  0     0
Warning -- total time of even greater than time of entire stage -- something is wrong with the timer
SNESSolve              1 1.0 1.9676e+02 1.0 8.97e+09 1.0 1.6e+08 2.9e+03 5.8e+02 93100 96 99 49 67624267741284 49 91924
SNESFunctionEval       2 1.0 4.7827e-01 1.0 0.00e+00 0.0 1.2e+06 2.2e+03 0.0e+00  0  0  1  1  0   2  0  6  7  0     0
SNESJacobianEval       1 1.0 9.7920e+00 1.0 5.33e+07 1.1 1.3e+07 1.7e+03 5.1e+02  5  1  8  5 43  34 14 64 63 43 11026

--- Event Stage 1: MG Apply

VecScale            3432 1.0 5.7261e-02 1.9 2.78e+07 2.6 0.0e+00 0.0e+00 0.0e+00  0  0  0  0  0   0  0  0  0  0 908821
VecCopy               22 1.0 9.6750e-05 1.4 0.00e+00 0.0 0.0e+00 0.0e+00 0.0e+00  0  0  0  0  0   0  0  0  0  0     0
VecSet               264 1.0 1.6552e-02 3.2 0.00e+00 0.0 0.0e+00 0.0e+00 0.0e+00  0  0  0  0  0   0  0  0  0  0     0
VecAYPX              264 1.0 3.9546e-02 1.1 3.39e+06 1.0 0.0e+00 0.0e+00 0.0e+00  0  0  0  0  0   0  0  0  0  0 171390
VecAXPBYCZ            88 1.0 2.5289e-04 1.3 1.94e+04 1.4 0.0e+00 0.0e+00 0.0e+00  0  0  0  0  0   0  0  0  0  0 117590
VecScatterBegin     3872 1.0 4.0872e+00 4.5 0.00e+00 0.0 1.5e+08 2.9e+03 0.0e+00  1  0 88 92  0   1  0100100  0     0
VecScatterEnd       3872 1.0 6.0361e+01 3.3 0.00e+00 0.0 0.0e+00 0.0e+00 0.0e+00 17  0  0  0  0  20  0  0  0  0     0
MatMult              308 1.0 3.4563e+00 2.2 1.49e+08 1.0 9.8e+06 1.3e+03 0.0e+00  1  2  6  3  0   1  2  7  3  0 87675
MatMultAdd           110 1.0 1.6872e+0139.1 3.13e+07 1.0 3.8e+06 5.0e+02 0.0e+00  8  0  2  0  0   9  0  3  0  0  3785
MatMultTranspose      22 1.0 1.6089e+0124777.1 1.41e+03 1.6 4.5e+04 2.5e+01 0.0e+00  0  0  0  0  0   0  0  0  0  0     0
MatSolve              22 0.0 1.6672e-02 0.0 2.76e+06 0.0 0.0e+00 0.0e+00 0.0e+00  0  0  0  0  0   0  0  0  0  0   165
MatSOR               308 1.0 1.6629e+02 1.1 8.42e+09 1.0 1.3e+08 3.1e+03 0.0e+00 77 94 79 89  0  89 98 91 97  0 102038
MatLUFactorSym         1 1.0 7.6309e-03128.9 0.00e+00 0.0 0.0e+00 0.0e+00 0.0e+00  0  0  0  0  0   0  0  0  0  0     0
MatLUFactorNum         1 1.0 4.6882e-0210114.8 5.33e+06 0.0 0.0e+00 0.0e+00 0.0e+00  0  0  0  0  0   0  0  0  0  0   114
MatResidual          110 1.0 2.6203e+00 1.9 1.43e+08 1.0 4.4e+06 2.4e+03 0.0e+00  1  2  3  2  0   1  2  3  2  0 111088
MatGetRowIJ            1 0.0 2.6988e-04 0.0 0.00e+00 0.0 0.0e+00 0.0e+00 0.0e+00  0  0  0  0  0   0  0  0  0  0     0
MatGetOrdering         1 0.0 2.2842e-03 0.0 0.00e+00 0.0 0.0e+00 0.0e+00 0.0e+00  0  0  0  0  0   0  0  0  0  0     0
PCSetUp                4 1.0 5.6982e-02189.1 5.33e+06 0.0 0.0e+00 0.0e+00 0.0e+00  0  0  0  0  0   0  0  0  0  0    94
PCSetUpOnBlocks       22 1.0 5.7042e-02162.9 5.33e+06 0.0 0.0e+00 0.0e+00 0.0e+00  0  0  0  0  0   0  0  0  0  0    93
PCApply               22 1.0 1.6468e+01 1.0 8.63e+0614.0 6.0e+06 8.1e+01 0.0e+00  8  0  4  0  0   9  0  4  0  0    98
KSPSetUp               2 1.0 3.5475e-06 2.1 0.00e+00 0.0 0.0e+00 0.0e+00 0.0e+00  0  0  0  0  0   0  0  0  0  0     0
KSPSolve             198 1.0 1.8268e+02 1.1 8.42e+09 1.0 1.4e+08 3.0e+03 0.0e+00 85 94 83 89  0  99 98 95 97  0 92886
MGSmooth Level 0      22 1.0 1.6470e+01 1.0 8.63e+0614.0 6.0e+06 8.1e+01 0.0e+00  8  0  4  0  0   9  0  4  0  0    98
MGSmooth Level 1      44 1.0 7.1554e-01 1.2 4.25e+07 1.3 3.8e+07 2.3e+02 0.0e+00  0  0 23  2  0   0  0 26  2  0 117128
MGResid Level 1       22 1.0 1.2675e-02 1.5 8.05e+05 1.3 9.8e+05 2.3e+02 0.0e+00  0  0  1  0  0   0  0  1  0  0 127099
MGInterp Level 1      44 1.0 1.1378e-0113.6 6.83e+04 1.3 1.1e+06 5.1e+01 0.0e+00  0  0  1  0  0   0  0  1  0  0  1206
MGSmooth Level 2      44 1.0 3.5969e+00 1.2 3.61e+08 1.1 3.8e+07 7.3e+02 0.0e+00  2  4 23  6  0   2  4 26  6  0 200766
MGResid Level 2       22 1.0 4.6477e-02 1.4 6.44e+06 1.1 9.8e+05 7.3e+02 0.0e+00  0  0  1  0  0   0  0  1  0  0 280597
MGInterp Level 2      44 1.0 2.5096e-02 2.3 5.46e+05 1.1 1.1e+06 1.7e+02 0.0e+00  0  0  1  0  0   0  0  1  0  0 44171
MGSmooth Level 3      44 1.0 4.3304e+01 1.2 2.98e+09 1.1 3.8e+07 2.6e+03 0.0e+00 19 33 23 21  0  22 35 26 23  0 138958
MGResid Level 3       22 1.0 7.0827e-01 1.9 5.15e+07 1.1 9.8e+05 2.6e+03 0.0e+00  0  1  1  1  0   0  1  1  1  0 148172
MGInterp Level 3      44 1.0 3.6418e-01 9.1 4.37e+06 1.1 1.1e+06 5.9e+02 0.0e+00  0  0  1  0  0   0  0  1  0  0 24464
MGSmooth Level 4      44 1.0 1.2479e+02 1.1 5.04e+09 1.0 1.9e+07 1.5e+04 0.0e+00 56 56 11 60  0  65 58 13 65  0 81284
MGResid Level 4       22 1.0 1.8695e+00 2.2 8.48e+07 1.0 4.7e+05 1.5e+04 0.0e+00  1  1  0  2  0   1  1  0  2  0 91620
MGInterp Level 4      44 1.0 1.4512e+00 4.9 3.50e+07 1.0 1.1e+06 2.3e+03 0.0e+00  0  0  1  1  0   0  0  1  1  0 49230
------------------------------------------------------------------------------------------------------------------------

Memory usage is given in bytes:

Object Type          Creations   Destructions     Memory  Descendants' Mem.
Reports information only for process 0.

--- Event Stage 0: Main Stage

              Vector   427            324     85881048     0
      Vector Scatter    67             15      4212244     0
             MatMFFD     1              1          840     0
              Matrix   106             28       259944     0
 Matrix Partitioning     1              1          720     0
      Matrix Coarsen     1              1          692     0
    Distributed Mesh    42             10        50352     0
Star Forest Bipartite Graph    90             26        22848     0
     Discrete System    42             10         8640     0
           Index Set   142            140      2950536     0
   IS L to G Mapping    40              8      2412928     0
         PetscRandom     2              2         1360     0
      Preconditioner    13              4         3952     0
       Krylov Solver    12              4        34600     0
     DMKSP interface     1              1          704     0
                SNES     1              1         1480     0
      SNESLineSearch     1              1          912     0
              DMSNES     1              1          720     0
              Viewer     1              0            0     0

--- Event Stage 1: MG Apply

              Vector   176            176     53016832     0
              Matrix     1              0            0     0
           Index Set     3              0            0     0
========================================================================================================================
Average time to get PetscTime(): 1.20062e-07
Average time for MPI_Barrier(): 3.40588e-06
Average time for zero size MPI_Send(): 1.03392e-05
#PETSc Option Table entries:
-AddRandomNoiseParticles 0
-ParamFile FallingBlock_FC_canonical.dat
-al_ksp_type preonly
-al_pc_factor_mat_solver_package mumps
-al_pc_type lu
-crs_ksp_type preonly
-crs_pc_gamg_agg_nsmooths 0
-crs_pc_gamg_repartition true
-crs_pc_gamg_sym_graph true
-crs_pc_gamg_verbose 1
-crs_pc_type gamg
-gmg_mg_levels_ksp_max_it 20
-gmg_mg_levels_ksp_richardson_scale 0.5
-gmg_mg_levels_ksp_type richardson
-gmg_pc_mg_cycle_type v
-gmg_pc_mg_galerkin
-gmg_pc_mg_levels 5
-gmg_pc_mg_log
-gmg_pc_mg_type multiplicative
-gmg_pc_type mg
-gmg_pc_view
-js_ksp_converged_reason
-js_ksp_max_it 1000
-js_ksp_min_it 2
-js_ksp_monitor
-js_ksp_rtol 1e-8
-js_ksp_type gcr
-log_summary
-nel 512,512,256
-npicard 3
-pgamma 1e3
-pstokes mg
-restart 0
-save_breakpoints 0
-snes_atol 1e-12
-snes_max_funcs 50000
-snes_max_it 25
-snes_monitor
-snes_rtol 1e-6
-snes_stol 1e-6
-snes_type ksponly
-use_fdstag_canonical
#End of PETSc Option Table entries
Compiled with FORTRAN kernels
Compiled with full precision matrices (default)
sizeof(short) 2 sizeof(int) 4 sizeof(long) 8 sizeof(void*) 8 sizeof(PetscScalar) 8 sizeof(PetscInt) 8
Configure options: --known-level1-dcache-size=32768 --known-level1-dcache-linesize=32 --known-level1-dcache-assoc=0 --known-mpi-long-double=1 --known-mpi-int64_t=1 --known-mpi-c-double-complex=1 --prefix=/homeb/hmz30/hmz300/LIB/petsc/3.5.2/JUQUEEN_OPT_64bit PETSC_ARCH=JUQUEEN_OPT_64bit --with-cc=mpixlc_r --with-cxx=mpixlcxx_r --with-fc="mpixlf77_r -qnosave" --with-large-file-io --with-64-bit-indices --with-blas-lapack-lib="-L/bgsys/local/lib -lesslbg -L/bgsys/local/lapack/3.4.2/lib -llapack -L/bgsys/local/lib -lesslbg" --download-superlu_dist=1 --download-parmetis=1 --download-metis=1 --download-hypre=1 --download-blacs=1 --download-scalapack=1 --with-x=0 --with-is-color-value-type=short --with-shared-libraries=0 -COPTFLAGS="-O3 -qstrict -qmaxmem=-1" -CXXOPTFLAGS="-O3 -qstrict -qmaxmem=-1" -FOPTFLAGS="-O3 -qstrict -qmaxmem=-1" --with-debugging=0 --with-fortran-kernels=1 --with-batch=1 --known-mpi-shared-libraries=0 --known-memcmp-ok --known-sizeof-char=1 --known-sizeof-void-p=8 --known-sizeof-short=2 --known-sizeof-int=4 --known-sizeof-long=8 --known-sizeof-size_t=8 --known-sizeof-long-long=8 --known-sizeof-float=4 --known-sizeof-double=8 --known-bits-per-byte=8 --known-sizeof-MPI_Comm=4 --known-sizeof-MPI_Fint=4
-----------------------------------------
Libraries compiled on Fri Oct 10 13:43:21 2014 on juqueen3.zam.kfa-juelich.de 
Machine characteristics: Linux-2.6.32-431.17.1.el6.ppc64-ppc64-with-redhat-6.5-Santiago
Using PETSc directory: /homeb/hmz30/hmz300/LIB/petsc-3.5.2
Using PETSc arch: JUQUEEN_OPT_64bit
-----------------------------------------

Using C compiler: mpixlc_r  -D_LARGEFILE64_SOURCE -D_FILE_OFFSET_BITS=64 -O3 -qstrict -qmaxmem=-1  ${COPTFLAGS} ${CFLAGS}
Using Fortran compiler: mpixlf77_r -qnosave  -O3 -qstrict -qmaxmem=-1   ${FOPTFLAGS} ${FFLAGS} 
-----------------------------------------

Using include paths: -I/homeb/hmz30/hmz300/LIB/petsc-3.5.2/JUQUEEN_OPT_64bit/include -I/homeb/hmz30/hmz300/LIB/petsc-3.5.2/include -I/homeb/hmz30/hmz300/LIB/petsc-3.5.2/include -I/homeb/hmz30/hmz300/LIB/petsc-3.5.2/JUQUEEN_OPT_64bit/include -I/bgsys/drivers/V1R2M2/ppc64/comm/include -I/bgsys/drivers/V1R2M2/ppc64/comm/lib/xl -I/bgsys/drivers/V1R2M2/ppc64 -I/bgsys/drivers/V1R2M2/ppc64/comm/sys/include -I/bgsys/drivers/V1R2M2/ppc64/spi/include -I/bgsys/drivers/V1R2M2/ppc64/spi/include/kernel/cnk
-----------------------------------------

Using C linker: mpixlc_r
Using Fortran linker: mpixlf77_r -qnosave
Using libraries: -Wl,-rpath,/homeb/hmz30/hmz300/LIB/petsc-3.5.2/JUQUEEN_OPT_64bit/lib -L/homeb/hmz30/hmz300/LIB/petsc-3.5.2/JUQUEEN_OPT_64bit/lib -lpetsc -Wl,-rpath,/homeb/hmz30/hmz300/LIB/petsc-3.5.2/JUQUEEN_OPT_64bit/lib -L/homeb/hmz30/hmz300/LIB/petsc-3.5.2/JUQUEEN_OPT_64bit/lib -lHYPRE -L/bgsys/drivers/V1R2M2/ppc64/comm/lib -L/bgsys/drivers/V1R2M2/ppc64/comm/lib64 -L/bgsys/drivers/V1R2M2/ppc64/spi/lib -L/bgsys/drivers/V1R2M2/ppc64/comm/sys/lib -L/opt/ibmcmp/xlsmp/bg/3.1/bglib64 -L/opt/ibmcmp/xlmass/bg/7.3/bglib64 -L/opt/ibmcmp/vac/bg/12.1/bglib64 -L/opt/ibmcmp/vacpp/bg/12.1/bglib64 -L/bgsys/drivers/toolchain/V1R2M2_base/gnu-linux/lib/gcc/powerpc64-bgq-linux/4.4.7 -L/bgsys/drivers/toolchain/V1R2M2_base/gnu-linux/lib/gcc -L/bgsys/drivers/toolchain/V1R2M2_base/gnu-linux/powerpc64-bgq-linux/lib -Wl,-rpath,/opt/ibmcmp/lib64/bg/bglib64 -lmpichcxx-xl -libmc++ -lscalapack -lsuperlu_dist_3.3 -L/bgsys/local/lib -lesslbg -L/bgsys/local/lapack/3.4.2/lib -llapack -lesslbg -lparmetis -lmetis -lpthread -L/opt/ibmcmp/xlf/bg/14.1/bglib64 -lmpichf77-xl -lxlf90_r -lxlomp_ser -lxlfmath -lm -lmpichcxx-xl -libmc++ -L/bgsys/drivers/V1R2M2/ppc64/comm/lib -L/bgsys/drivers/V1R2M2/ppc64/comm/lib -L/bgsys/drivers/V1R2M2/ppc64/comm/lib64 -L/bgsys/drivers/V1R2M2/ppc64/comm/lib -L/bgsys/drivers/V1R2M2/ppc64/spi/lib -L/bgsys/drivers/V1R2M2/ppc64/comm/sys/lib -L/bgsys/drivers/V1R2M2/ppc64/spi/lib -L/bgsys/drivers/V1R2M2/ppc64/comm/sys/lib -L/bgsys/drivers/V1R2M2/ppc64/comm/lib64 -L/bgsys/drivers/V1R2M2/ppc64/comm/lib -L/bgsys/drivers/V1R2M2/ppc64/spi/lib -L/bgsys/drivers/V1R2M2/ppc64/comm/lib -L/opt/ibmcmp/xlsmp/bg/3.1/bglib64 -L/opt/ibmcmp/xlmass/bg/7.3/bglib64 -L/opt/ibmcmp/vac/bg/12.1/bglib64 -L/opt/ibmcmp/vacpp/bg/12.1/bglib64 -Wl,-rpath,/opt/ibmcmp/lib64/bg/bglib64 -L/bgsys/drivers/toolchain/V1R2M2_base/gnu-linux/lib/gcc/powerpc64-bgq-linux/4.4.7 -L/bgsys/drivers/toolchain/V1R2M2_base/gnu-linux/lib/gcc -L/bgsys/drivers/toolchain/V1R2M2_base/gnu-linux/powerpc64-bgq-linux/lib -ldl -lmpich-xl -lopa-xl -lmpl-xl -lpami-gcc -lSPI -lSPI_cnk -lrt -lpthread -lstdc++ -lxlopt -lxl -lnss_files -lnss_dns -lresolv -lgcc_eh -ldl  
-----------------------------------------

